[
 {
  "slug": "writing-hand",
  "character": "✍️"
 },
 {
  "slug": "nail-polish",
  "character": "💅"
 },
 {
  "slug": "selfie",
  "character": "🤳"
 },
 {
  "slug": "flexed-biceps",
  "character": "💪"
 },
 {
  "slug": "mechanical-arm",
  "character": "🦾"
 },
 {
  "slug": "mechanical-leg",
  "character": "🦿"
 },
 {
  "slug": "leg",
  "character": "🦵"
 },
 {
  "slug": "foot",
  "character": "🦶"
 },
 {
  "slug": "ear",
  "character": "👂"
 },
 {
  "slug": "ear-with-hearing-aid",
  "character": "🦻"
 },
 {
  "slug": "nose",
  "character": "👃"
 },
 {
  "slug": "brain",
  "character": "🧠"
 },
 {
  "slug": "anatomical-heart",
  "character": "🫀"
 },
 {
  "slug": "lungs",
  "character": "🫁"
 },
 {
  "slug": "tooth",
  "character": "🦷"
 },
 {
  "slug": "bone",
  "character": "🦴"
 },
 {
  "slug": "eyes",
  "character": "👀"
 },
 {
  "slug": "eye",
  "character": "👁️"
 },
 {
  "slug": "tongue",
  "character": "👅"
 },
 {
  "slug": "mouth",
  "character": "👄"
 },
 {
  "slug": "health-worker",
  "character": "🧑‍⚕️"
 },
 {
  "slug": "student",
  "character": "🧑‍🎓"
 },
 {
  "slug": "teacher",
  "character": "🧑‍🏫"
 },
 {
  "slug": "judge",
  "character": "🧑‍⚖️"
 },
 {
  "slug": "farmer",
  "character": "🧑‍🌾"
 },
 {
  "slug": "cook",
  "character": "🧑‍🍳"
 },
 {
  "slug": "mechanic",
  "character": "🧑‍🔧"
 },
 {
  "slug": "factory-worker",
  "character": "🧑‍🏭"
 },
 {
  "slug": "office-worker",
  "character": "🧑‍💼"
 },
 {
  "slug": "scientist",
  "character": "🧑‍🔬"
 },
 {
  "slug": "technologist",
  "character": "🧑‍💻"
 },
 {
  "slug": "singer",
  "character": "🧑‍🎤"
 },
 {
  "slug": "artist",
  "character": "🧑‍🎨"
 },
 {
  "slug": "pilot",
  "character": "🧑‍✈️"
 },
 {
  "slug": "astronaut",
  "character": "🧑‍🚀"
 },
 {
  "slug": "firefighter",
  "character": "🧑‍🚒"
 },
 {
  "slug": "police-officer",
  "character": "👮"
 },
 {
  "slug": "detective",
  "character": "🕵️"
 },
 {
  "slug": "guard",
  "character": "💂"
 },
 {
  "slug": "ninja",
  "character": "🥷"
 },
 {
  "slug": "construction-worker",
  "character": "👷"
 },
 {
  "slug": "prince",
  "character": "🤴"
 },
 {
  "slug": "princess",
  "character": "👸"
 },
 {
  "slug": "person-wearing-turban",
  "character": "👳"
 },
 {
  "slug": "person-with-skullcap",
  "character": "👲"
 },
 {
  "slug": "person-in-tuxedo",
  "character": "🤵"
 },
 {
  "slug": "person-with-veil",
  "character": "👰"
 },
 {
  "slug": "pregnant-woman",
  "character": "🤰"
 },
 {
  "slug": "breast-feeding",
  "character": "🤱"
 },
 {
  "slug": "person-feeding-baby",
  "character": "🧑‍🍼"
 },
 {
  "slug": "baby-angel",
  "character": "👼"
 },
 {
  "slug": "santa-claus",
  "character": "🎅"
 },
 {
  "slug": "mrs-claus",
  "character": "🤶"
 },
 {
  "slug": "mx-claus",
  "character": "🧑‍🎄"
 },
 {
  "slug": "superhero",
  "character": "🦸"
 },
 {
  "slug": "supervillain",
  "character": "🦹"
 },
 {
  "slug": "mage",
  "character": "🧙"
 },
 {
  "slug": "fairy",
  "character": "🧚"
 },
 {
  "slug": "vampire",
  "character": "🧛"
 },
 {
  "slug": "merperson",
  "character": "🧜"
 },
 {
  "slug": "merman",
  "character": "🧜‍♂️"
 },
 {
  "slug": "mermaid",
  "character": "🧜‍♀️"
 },
 {
  "slug": "elf",
  "character": "🧝"
 },
 {
  "slug": "genie",
  "character": "🧞"
 },
 {
  "slug": "zombie",
  "character": "🧟"
 },
 {
  "slug": "person-getting-massage",
  "character": "💆"
 },
 {
  "slug": "person-getting-haircut",
  "character": "💇"
 },
 {
  "slug": "person-walking",
  "character": "🚶"
 },
 {
  "slug": "person-standing",
  "character": "🧍"
 },
 {
  "slug": "person-kneeling",
  "character": "🧎"
 },
 {
  "slug": "person-with-white-cane",
  "character": "🧑‍🦯"
 },
 {
  "slug": "person-in-motorized-wheelchair",
  "character": "🧑‍🦼"
 },
 {
  "slug": "person-in-manual-wheelchair",
  "character": "🧑‍🦽"
 },
 {
  "slug": "person-running",
  "character": "🏃"
 },
 {
  "slug": "person-in-suit-levitating",
  "character": "🕴️"
 },
 {
  "slug": "people-with-bunny-ears",
  "character": "👯"
 },
 {
  "slug": "person-in-steamy-room",
  "character": "🧖"
 },
 {
  "slug": "person-climbing",
  "character": "🧗"
 },
 {
  "slug": "person-fencing",
  "character": "🤺"
 },
 {
  "slug": "horse-racing",
  "character": "🏇"
 },
 {
  "slug": "skier",
  "character": "⛷️"
 },
 {
  "slug": "snowboarder",
  "character": "🏂"
 },
 {
  "slug": "person-golfing",
  "character": "🏌️"
 },
 {
  "slug": "person-surfing",
  "character": "🏄"
 },
 {
  "slug": "person-rowing-boat",
  "character": "🚣"
 },
 {
  "slug": "person-swimming",
  "character": "🏊"
 },
 {
  "slug": "person-bouncing-ball",
  "character": "⛹️"
 },
 {
  "slug": "person-lifting-weights",
  "character": "🏋️"
 },
 {
  "slug": "person-biking",
  "character": "🚴"
 },
 {
  "slug": "person-mountain-biking",
  "character": "🚵"
 },
 {
  "slug": "person-cartwheeling",
  "character": "🤸"
 },
 {
  "slug": "people-wrestling",
  "character": "🤼"
 },
 {
  "slug": "person-playing-water-polo",
  "character": "🤽"
 },
 {
  "slug": "person-playing-handball",
  "character": "🤾"
 },
 {
  "slug": "person-juggling",
  "character": "🤹"
 },
 {
  "slug": "person-in-lotus-position",
  "character": "🧘"
 },
 {
  "slug": "person-taking-bath",
  "character": "🛀"
 },
 {
  "slug": "person-in-bed",
  "character": "🛌"
 },
 {
  "slug": "monkey-face",
  "character": "🐵"
 },
 {
  "slug": "monkey",
  "character": "🐒"
 },
 {
  "slug": "gorilla",
  "character": "🦍"
 },
 {
  "slug": "orangutan",
  "character": "🦧"
 },
 {
  "slug": "dog-face",
  "character": "🐶"
 },
 {
  "slug": "dog",
  "character": "🐕"
 },
 {
  "slug": "guide-dog",
  "character": "🦮"
 },
 {
  "slug": "service-dog",
  "character": "🐕‍🦺"
 },
 {
  "slug": "poodle",
  "character": "🐩"
 },
 {
  "slug": "wolf",
  "character": "🐺"
 },
 {
  "slug": "fox",
  "character": "🦊"
 },
 {
  "slug": "raccoon",
  "character": "🦝"
 },
 {
  "slug": "cat-face",
  "character": "🐱"
 },
 {
  "slug": "cat",
  "character": "🐈"
 },
 {
  "slug": "black-cat",
  "character": "🐈‍⬛"
 },
 {
  "slug": "lion",
  "character": "🦁"
 },
 {
  "slug": "tiger-face",
  "character": "🐯"
 },
 {
  "slug": "tiger",
  "character": "🐅"
 },
 {
  "slug": "leopard",
  "character": "🐆"
 },
 {
  "slug": "horse-face",
  "character": "🐴"
 },
 {
  "slug": "horse",
  "character": "🐎"
 },
 {
  "slug": "unicorn",
  "character": "🦄"
 },
 {
  "slug": "zebra",
  "character": "🦓"
 },
 {
  "slug": "deer",
  "character": "🦌"
 },
 {
  "slug": "bison",
  "character": "🦬"
 },
 {
  "slug": "cow-face",
  "character": "🐮"
 },
 {
  "slug": "ox",
  "character": "🐂"
 },
 {
  "slug": "water-buffalo",
  "character": "🐃"
 },
 {
  "slug": "cow",
  "character": "🐄"
 },
 {
  "slug": "pig-face",
  "character": "🐷"
 },
 {
  "slug": "pig",
  "character": "🐖"
 },
 {
  "slug": "boar",
  "character": "🐗"
 },
 {
  "slug": "pig-nose",
  "character": "🐽"
 },
 {
  "slug": "ram",
  "character": "🐏"
 },
 {
  "slug": "ewe",
  "character": "🐑"
 },
 {
  "slug": "goat",
  "character": "🐐"
 },
 {
  "slug": "camel",
  "character": "🐪"
 },
 {
  "slug": "two-hump-camel",
  "character": "🐫"
 },
 {
  "slug": "llama",
  "character": "🦙"
 },
 {
  "slug": "giraffe",
  "character": "🦒"
 },
 {
  "slug": "elephant",
  "character": "🐘"
 },
 {
  "slug": "mammoth",
  "character": "🦣"
 },
 {
  "slug": "rhinoceros",
  "character": "🦏"
 },
 {
  "slug": "hippopotamus",
  "character": "🦛"
 },
 {
  "slug": "mouse-face",
  "character": "🐭"
 },
 {
  "slug": "mouse",
  "character": "🐁"
 },
 {
  "slug": "rat",
  "character": "🐀"
 },
 {
  "slug": "hamster",
  "character": "🐹"
 },
 {
  "slug": "rabbit-face",
  "character": "🐰"
 },
 {
  "slug": "rabbit",
  "character": "🐇"
 },
 {
  "slug": "chipmunk",
  "character": "🐿️"
 },
 {
  "slug": "beaver",
  "character": "🦫"
 },
 {
  "slug": "hedgehog",
  "character": "🦔"
 },
 {
  "slug": "bat",
  "character": "🦇"
 },
 {
  "slug": "bear",
  "character": "🐻"
 },
 {
  "slug": "polar-bear",
  "character": "🐻‍❄️"
 },
 {
  "slug": "koala",
  "character": "🐨"
 },
 {
  "slug": "panda",
  "character": "🐼"
 },
 {
  "slug": "sloth",
  "character": "🦥"
 },
 {
  "slug": "otter",
  "character": "🦦"
 },
 {
  "slug": "skunk",
  "character": "🦨"
 },
 {
  "slug": "kangaroo",
  "character": "🦘"
 },
 {
  "slug": "badger",
  "character": "🦡"
 },
 {
  "slug": "paw-prints",
  "character": "🐾"
 },
 {
  "slug": "turkey",
  "character": "🦃"
 },
 {
  "slug": "chicken",
  "character": "🐔"
 },
 {
  "slug": "rooster",
  "character": "🐓"
 },
 {
  "slug": "hatching-chick",
  "character": "🐣"
 },
 {
  "slug": "baby-chick",
  "character": "🐤"
 },
 {
  "slug": "front-facing-baby-chick",
  "character": "🐥"
 },
 {
  "slug": "bird",
  "character": "🐦"
 },
 {
  "slug": "penguin",
  "character": "🐧"
 },
 {
  "slug": "dove",
  "character": "🕊️"
 },
 {
  "slug": "eagle",
  "character": "🦅"
 },
 {
  "slug": "duck",
  "character": "🦆"
 },
 {
  "slug": "swan",
  "character": "🦢"
 },
 {
  "slug": "owl",
  "character": "🦉"
 },
 {
  "slug": "dodo",
  "character": "🦤"
 },
 {
  "slug": "feather",
  "character": "🪶"
 },
 {
  "slug": "flamingo",
  "character": "🦩"
 },
 {
  "slug": "peacock",
  "character": "🦚"
 },
 {
  "slug": "parrot",
  "character": "🦜"
 },
 {
  "slug": "frog",
  "character": "🐸"
 },
 {
  "slug": "crocodile",
  "character": "🐊"
 },
 {
  "slug": "turtle",
  "character": "🐢"
 },
 {
  "slug": "lizard",
  "character": "🦎"
 },
 {
  "slug": "snake",
  "character": "🐍"
 },
 {
  "slug": "dragon-face",
  "character": "🐲"
 },
 {
  "slug": "dragon",
  "character": "🐉"
 },
 {
  "slug": "sauropod",
  "character": "🦕"
 },
 {
  "slug": "t-rex",
  "character": "🦖"
 },
 {
  "slug": "spouting-whale",
  "character": "🐳"
 },
 {
  "slug": "whale",
  "character": "🐋"
 },
 {
  "slug": "dolphin",
  "character": "🐬"
 },
 {
  "slug": "seal",
  "character": "🦭"
 },
 {
  "slug": "fish",
  "character": "🐟"
 },
 {
  "slug": "tropical-fish",
  "character": "🐠"
 },
 {
  "slug": "blowfish",
  "character": "🐡"
 },
 {
  "slug": "shark",
  "character": "🦈"
 },
 {
  "slug": "octopus",
  "character": "🐙"
 },
 {
  "slug": "spiral-shell",
  "character": "🐚"
 },
 {
  "slug": "snail",
  "character": "🐌"
 },
 {
  "slug": "butterfly",
  "character": "🦋"
 },
 {
  "slug": "bug",
  "character": "🐛"
 },
 {
  "slug": "ant",
  "character": "🐜"
 },
 {
  "slug": "honeybee",
  "character": "🐝"
 },
 {
  "slug": "beetle",
  "character": "🪲"
 },
 {
  "slug": "lady-beetle",
  "character": "🐞"
 },
 {
  "slug": "cricket",
  "character": "🦗"
 },
 {
  "slug": "cockroach",
  "character": "🪳"
 },
 {
  "slug": "spider",
  "character": "🕷️"
 },
 {
  "slug": "spider-web",
  "character": "🕸️"
 },
 {
  "slug": "scorpion",
  "character": "🦂"
 },
 {
  "slug": "mosquito",
  "character": "🦟"
 },
 {
  "slug": "fly",
  "character": "🪰"
 },
 {
  "slug": "worm",
  "character": "🪱"
 },
 {
  "slug": "microbe",
  "character": "🦠"
 },
 {
  "slug": "bouquet",
  "character": "💐"
 },
 {
  "slug": "cherry-blossom",
  "character": "🌸"
 },
 {
  "slug": "white-flower",
  "character": "💮"
 },
 {
  "slug": "rosette",
  "character": "🏵️"
 },
 {
  "slug": "rose",
  "character": "🌹"
 },
 {
  "slug": "wilted-flower",
  "character": "🥀"
 },
 {
  "slug": "hibiscus",
  "character": "🌺"
 },
 {
  "slug": "sunflower",
  "character": "🌻"
 },
 {
  "slug": "blossom",
  "character": "🌼"
 },
 {
  "slug": "tulip",
  "character": "🌷"
 },
 {
  "slug": "seedling",
  "character": "🌱"
 },
 {
  "slug": "potted-plant",
  "character": "🪴"
 },
 {
  "slug": "evergreen-tree",
  "character": "🌲"
 },
 {
  "slug": "deciduous-tree",
  "character": "🌳"
 },
 {
  "slug": "palm-tree",
  "character": "🌴"
 },
 {
  "slug": "cactus",
  "character": "🌵"
 },
 {
  "slug": "sheaf-of-rice",
  "character": "🌾"
 },
 {
  "slug": "herb",
  "character": "🌿"
 },
 {
  "slug": "shamrock",
  "character": "☘️"
 },
 {
  "slug": "four-leaf-clover",
  "character": "🍀"
 },
 {
  "slug": "maple-leaf",
  "character": "🍁"
 },
 {
  "slug": "fallen-leaf",
  "character": "🍂"
 },
 {
  "slug": "leaf-fluttering-in-wind",
  "character": "🍃"
 },
 {
  "slug": "grapes",
  "character": "🍇"
 },
 {
  "slug": "melon",
  "character": "🍈"
 },
 {
  "slug": "watermelon",
  "character": "🍉"
 },
 {
  "slug": "tangerine",
  "character": "🍊"
 },
 {
  "slug": "lemon",
  "character": "🍋"
 },
 {
  "slug": "banana",
  "character": "🍌"
 },
 {
  "slug": "pineapple",
  "character": "🍍"
 },
 {
  "slug": "mango",
  "character": "🥭"
 },
 {
  "slug": "red-apple",
  "character": "🍎"
 },
 {
  "slug": "green-apple",
  "character": "🍏"
 },
 {
  "slug": "pear",
  "character": "🍐"
 },
 {
  "slug": "peach",
  "character": "🍑"
 },
 {
  "slug": "cherries",
  "character": "🍒"
 },
 {
  "slug": "strawberry",
  "character": "🍓"
 },
 {
  "slug": "blueberries",
  "character": "🫐"
 },
 {
  "slug": "kiwi-fruit",
  "character": "🥝"
 },
 {
  "slug": "tomato",
  "character": "🍅"
 },
 {
  "slug": "olive",
  "character": "🫒"
 },
 {
  "slug": "coconut",
  "character": "🥥"
 },
 {
  "slug": "avocado",
  "character": "🥑"
 },
 {
  "slug": "eggplant",
  "character": "🍆"
 },
 {
  "slug": "potato",
  "character": "🥔"
 },
 {
  "slug": "carrot",
  "character": "🥕"
 },
 {
  "slug": "ear-of-corn",
  "character": "🌽"
 },
 {
  "slug": "hot-pepper",
  "character": "🌶️"
 },
 {
  "slug": "bell-pepper",
  "character": "🫑"
 },
 {
  "slug": "cucumber",
  "character": "🥒"
 },
 {
  "slug": "leafy-green",
  "character": "🥬"
 },
 {
  "slug": "broccoli",
  "character": "🥦"
 },
 {
  "slug": "garlic",
  "character": "🧄"
 },
 {
  "slug": "onion",
  "character": "🧅"
 },
 {
  "slug": "mushroom",
  "character": "🍄"
 },
 {
  "slug": "peanuts",
  "character": "🥜"
 },
 {
  "slug": "chestnut",
  "character": "🌰"
 },
 {
  "slug": "bread",
  "character": "🍞"
 },
 {
  "slug": "croissant",
  "character": "🥐"
 },
 {
  "slug": "baguette-bread",
  "character": "🥖"
 },
 {
  "slug": "flatbread",
  "character": "🫓"
 },
 {
  "slug": "pretzel",
  "character": "🥨"
 },
 {
  "slug": "bagel",
  "character": "🥯"
 },
 {
  "slug": "pancakes",
  "character": "🥞"
 },
 {
  "slug": "waffle",
  "character": "🧇"
 },
 {
  "slug": "cheese-wedge",
  "character": "🧀"
 },
 {
  "slug": "meat-on-bone",
  "character": "🍖"
 },
 {
  "slug": "poultry-leg",
  "character": "🍗"
 },
 {
  "slug": "cut-of-meat",
  "character": "🥩"
 },
 {
  "slug": "bacon",
  "character": "🥓"
 },
 {
  "slug": "hamburger",
  "character": "🍔"
 },
 {
  "slug": "french-fries",
  "character": "🍟"
 },
 {
  "slug": "pizza",
  "character": "🍕"
 },
 {
  "slug": "hot-dog",
  "character": "🌭"
 },
 {
  "slug": "sandwich",
  "character": "🥪"
 },
 {
  "slug": "taco",
  "character": "🌮"
 },
 {
  "slug": "burrito",
  "character": "🌯"
 },
 {
  "slug": "tamale",
  "character": "🫔"
 },
 {
  "slug": "stuffed-flatbread",
  "character": "🥙"
 },
 {
  "slug": "falafel",
  "character": "🧆"
 },
 {
  "slug": "egg",
  "character": "🥚"
 },
 {
  "slug": "cooking",
  "character": "🍳"
 },
 {
  "slug": "shallow-pan-of-food",
  "character": "🥘"
 },
 {
  "slug": "pot-of-food",
  "character": "🍲"
 },
 {
  "slug": "fondue",
  "character": "🫕"
 },
 {
  "slug": "bowl-with-spoon",
  "character": "🥣"
 },
 {
  "slug": "green-salad",
  "character": "🥗"
 },
 {
  "slug": "popcorn",
  "character": "🍿"
 },
 {
  "slug": "butter",
  "character": "🧈"
 },
 {
  "slug": "salt",
  "character": "🧂"
 },
 {
  "slug": "canned-food",
  "character": "🥫"
 },
 {
  "slug": "bento-box",
  "character": "🍱"
 },
 {
  "slug": "rice-cracker",
  "character": "🍘"
 },
 {
  "slug": "rice-ball",
  "character": "🍙"
 },
 {
  "slug": "cooked-rice",
  "character": "🍚"
 },
 {
  "slug": "curry-rice",
  "character": "🍛"
 },
 {
  "slug": "steaming-bowl",
  "character": "🍜"
 },
 {
  "slug": "spaghetti",
  "character": "🍝"
 },
 {
  "slug": "roasted-sweet-potato",
  "character": "🍠"
 },
 {
  "slug": "oden",
  "character": "🍢"
 },
 {
  "slug": "sushi",
  "character": "🍣"
 },
 {
  "slug": "fried-shrimp",
  "character": "🍤"
 },
 {
  "slug": "fish-cake-with-swirl",
  "character": "🍥"
 },
 {
  "slug": "moon-cake",
  "character": "🥮"
 },
 {
  "slug": "dango",
  "character": "🍡"
 },
 {
  "slug": "dumpling",
  "character": "🥟"
 },
 {
  "slug": "fortune-cookie",
  "character": "🥠"
 },
 {
  "slug": "takeout-box",
  "character": "🥡"
 },
 {
  "slug": "crab",
  "character": "🦀"
 },
 {
  "slug": "lobster",
  "character": "🦞"
 },
 {
  "slug": "shrimp",
  "character": "🦐"
 },
 {
  "slug": "squid",
  "character": "🦑"
 },
 {
  "slug": "oyster",
  "character": "🦪"
 },
 {
  "slug": "soft-ice-cream",
  "character": "🍦"
 },
 {
  "slug": "shaved-ice",
  "character": "🍧"
 },
 {
  "slug": "ice-cream",
  "character": "🍨"
 },
 {
  "slug": "doughnut",
  "character": "🍩"
 },
 {
  "slug": "cookie",
  "character": "🍪"
 },
 {
  "slug": "birthday-cake",
  "character": "🎂"
 },
 {
  "slug": "shortcake",
  "character": "🍰"
 },
 {
  "slug": "cupcake",
  "character": "🧁"
 },
 {
  "slug": "pie",
  "character": "🥧"
 },
 {
  "slug": "chocolate-bar",
  "character": "🍫"
 },
 {
  "slug": "candy",
  "character": "🍬"
 },
 {
  "slug": "lollipop",
  "character": "🍭"
 },
 {
  "slug": "custard",
  "character": "🍮"
 },
 {
  "slug": "honey-pot",
  "character": "🍯"
 },
 {
  "slug": "baby-bottle",
  "character": "🍼"
 },
 {
  "slug": "glass-of-milk",
  "character": "🥛"
 },
 {
  "slug": "hot-beverage",
  "character": "☕"
 },
 {
  "slug": "teapot",
  "character": "🫖"
 },
 {
  "slug": "teacup-without-handle",
  "character": "🍵"
 },
 {
  "slug": "sake",
  "character": "🍶"
 },
 {
  "slug": "bottle-with-popping-cork",
  "character": "🍾"
 },
 {
  "slug": "wine-glass",
  "character": "🍷"
 },
 {
  "slug": "cocktail-glass",
  "character": "🍸"
 },
 {
  "slug": "tropical-drink",
  "character": "🍹"
 },
 {
  "slug": "beer-mug",
  "character": "🍺"
 },
 {
  "slug": "clinking-beer-mugs",
  "character": "🍻"
 },
 {
  "slug": "clinking-glasses",
  "character": "🥂"
 },
 {
  "slug": "tumbler-glass",
  "character": "🥃"
 },
 {
  "slug": "cup-with-straw",
  "character": "🥤"
 },
 {
  "slug": "bubble-tea",
  "character": "🧋"
 },
 {
  "slug": "beverage-box",
  "character": "🧃"
 },
 {
  "slug": "mate",
  "character": "🧉"
 },
 {
  "slug": "ice",
  "character": "🧊"
 },
 {
  "slug": "chopsticks",
  "character": "🥢"
 },
 {
  "slug": "fork-and-knife-with-plate",
  "character": "🍽️"
 },
 {
  "slug": "fork-and-knife",
  "character": "🍴"
 },
 {
  "slug": "spoon",
  "character": "🥄"
 },
 {
  "slug": "kitchen-knife",
  "character": "🔪"
 },
 {
  "slug": "amphora",
  "character": "🏺"
 },
 {
  "slug": "globe-showing-europe-africa",
  "character": "🌍"
 },
 {
  "slug": "globe-showing-americas",
  "character": "🌎"
 },
 {
  "slug": "globe-showing-asia-australia",
  "character": "🌏"
 },
 {
  "slug": "globe-with-meridians",
  "character": "🌐"
 },
 {
  "slug": "world-map",
  "character": "🗺️"
 },
 {
  "slug": "map-of-japan",
  "character": "🗾"
 },
 {
  "slug": "compass",
  "character": "🧭"
 },
 {
  "slug": "snow-capped-mountain",
  "character": "🏔️"
 },
 {
  "slug": "mountain",
  "character": "⛰️"
 },
 {
  "slug": "volcano",
  "character": "🌋"
 },
 {
  "slug": "mount-fuji",
  "character": "🗻"
 },
 {
  "slug": "camping",
  "character": "🏕️"
 },
 {
  "slug": "beach-with-umbrella",
  "character": "🏖️"
 },
 {
  "slug": "desert",
  "character": "🏜️"
 },
 {
  "slug": "desert-island",
  "character": "🏝️"
 },
 {
  "slug": "national-park",
  "character": "🏞️"
 },
 {
  "slug": "stadium",
  "character": "🏟️"
 },
 {
  "slug": "classical-building",
  "character": "🏛️"
 },
 {
  "slug": "building-construction",
  "character": "🏗️"
 },
 {
  "slug": "brick",
  "character": "🧱"
 },
 {
  "slug": "rock",
  "character": "🪨"
 },
 {
  "slug": "wood",
  "character": "🪵"
 },
 {
  "slug": "hut",
  "character": "🛖"
 },
 {
  "slug": "houses",
  "character": "🏘️"
 },
 {
  "slug": "derelict-house",
  "character": "🏚️"
 },
 {
  "slug": "house",
  "character": "🏠"
 },
 {
  "slug": "house-with-garden",
  "character": "🏡"
 },
 {
  "slug": "office-building",
  "character": "🏢"
 },
 {
  "slug": "japanese-post-office",
  "character": "🏣"
 },
 {
  "slug": "post-office",
  "character": "🏤"
 },
 {
  "slug": "hospital",
  "character": "🏥"
 },
 {
  "slug": "bank",
  "character": "🏦"
 },
 {
  "slug": "hotel",
  "character": "🏨"
 },
 {
  "slug": "love-hotel",
  "character": "🏩"
 },
 {
  "slug": "convenience-store",
  "character": "🏪"
 },
 {
  "slug": "school",
  "character": "🏫"
 },
 {
  "slug": "department-store",
  "character": "🏬"
 },
 {
  "slug": "factory",
  "character": "🏭"
 },
 {
  "slug": "japanese-castle",
  "character": "🏯"
 },
 {
  "slug": "castle",
  "character": "🏰"
 },
 {
  "slug": "wedding",
  "character": "💒"
 },
 {
  "slug": "tokyo-tower",
  "character": "🗼"
 },
 {
  "slug": "statue-of-liberty",
  "character": "🗽"
 },
 {
  "slug": "church",
  "character": "⛪"
 },
 {
  "slug": "mosque",
  "character": "🕌"
 },
 {
  "slug": "hindu-temple",
  "character": "🛕"
 },
 {
  "slug": "synagogue",
  "character": "🕍"
 },
 {
  "slug": "shinto-shrine",
  "character": "⛩️"
 },
 {
  "slug": "kaaba",
  "character": "🕋"
 },
 {
  "slug": "fountain",
  "character": "⛲"
 },
 {
  "slug": "tent",
  "character": "⛺"
 },
 {
  "slug": "foggy",
  "character": "🌁"
 },
 {
  "slug": "night-with-stars",
  "character": "🌃"
 },
 {
  "slug": "cityscape",
  "character": "🏙️"
 },
 {
  "slug": "sunrise-over-mountains",
  "character": "🌄"
 },
 {
  "slug": "sunrise",
  "character": "🌅"
 },
 {
  "slug": "cityscape-at-dusk",
  "character": "🌆"
 },
 {
  "slug": "sunset",
  "character": "🌇"
 },
 {
  "slug": "bridge-at-night",
  "character": "🌉"
 },
 {
  "slug": "hot-springs",
  "character": "♨️"
 },
 {
  "slug": "carousel-horse",
  "character": "🎠"
 },
 {
  "slug": "ferris-wheel",
  "character": "🎡"
 },
 {
  "slug": "roller-coaster",
  "character": "🎢"
 },
 {
  "slug": "barber-pole",
  "character": "💈"
 },
 {
  "slug": "circus-tent",
  "character": "🎪"
 },
 {
  "slug": "locomotive",
  "character": "🚂"
 },
 {
  "slug": "railway-car",
  "character": "🚃"
 },
 {
  "slug": "high-speed-train",
  "character": "🚄"
 },
 {
  "slug": "bullet-train",
  "character": "🚅"
 },
 {
  "slug": "train",
  "character": "🚆"
 },
 {
  "slug": "metro",
  "character": "🚇"
 },
 {
  "slug": "light-rail",
  "character": "🚈"
 },
 {
  "slug": "station",
  "character": "🚉"
 },
 {
  "slug": "tram",
  "character": "🚊"
 },
 {
  "slug": "monorail",
  "character": "🚝"
 },
 {
  "slug": "mountain-railway",
  "character": "🚞"
 },
 {
  "slug": "tram-car",
  "character": "🚋"
 },
 {
  "slug": "bus",
  "character": "🚌"
 },
 {
  "slug": "oncoming-bus",
  "character": "🚍"
 },
 {
  "slug": "trolleybus",
  "character": "🚎"
 },
 {
  "slug": "minibus",
  "character": "🚐"
 },
 {
  "slug": "ambulance",
  "character": "🚑"
 },
 {
  "slug": "fire-engine",
  "character": "🚒"
 },
 {
  "slug": "police-car",
  "character": "🚓"
 },
 {
  "slug": "oncoming-police-car",
  "character": "🚔"
 },
 {
  "slug": "taxi",
  "character": "🚕"
 },
 {
  "slug": "oncoming-taxi",
  "character": "🚖"
 },
 {
  "slug": "automobile",
  "character": "🚗"
 },
 {
  "slug": "oncoming-automobile",
  "character": "🚘"
 },
 {
  "slug": "sport-utility-vehicle",
  "character": "🚙"
 },
 {
  "slug": "pickup-truck",
  "character": "🛻"
 },
 {
  "slug": "delivery-truck",
  "character": "🚚"
 },
 {
  "slug": "articulated-lorry",
  "character": "🚛"
 },
 {
  "slug": "tractor",
  "character": "🚜"
 },
 {
  "slug": "racing-car",
  "character": "🏎️"
 },
 {
  "slug": "motorcycle",
  "character": "🏍️"
 },
 {
  "slug": "motor-scooter",
  "character": "🛵"
 },
 {
  "slug": "manual-wheelchair",
  "character": "🦽"
 },
 {
  "slug": "motorized-wheelchair",
  "character": "🦼"
 },
 {
  "slug": "auto-rickshaw",
  "character": "🛺"
 },
 {
  "slug": "bicycle",
  "character": "🚲"
 },
 {
  "slug": "kick-scooter",
  "character": "🛴"
 },
 {
  "slug": "skateboard",
  "character": "🛹"
 },
 {
  "slug": "roller-skate",
  "character": "🛼"
 },
 {
  "slug": "bus-stop",
  "character": "🚏"
 },
 {
  "slug": "motorway",
  "character": "🛣️"
 },
 {
  "slug": "railway-track",
  "character": "🛤️"
 },
 {
  "slug": "oil-drum",
  "character": "🛢️"
 },
 {
  "slug": "fuel-pump",
  "character": "⛽"
 },
 {
  "slug": "police-car-light",
  "character": "🚨"
 },
 {
  "slug": "horizontal-traffic-light",
  "character": "🚥"
 },
 {
  "slug": "vertical-traffic-light",
  "character": "🚦"
 },
 {
  "slug": "stop-sign",
  "character": "🛑"
 },
 {
  "slug": "construction",
  "character": "🚧"
 },
 {
  "slug": "anchor",
  "character": "⚓"
 },
 {
  "slug": "sailboat",
  "character": "⛵"
 },
 {
  "slug": "canoe",
  "character": "🛶"
 },
 {
  "slug": "speedboat",
  "character": "🚤"
 },
 {
  "slug": "passenger-ship",
  "character": "🛳️"
 },
 {
  "slug": "ferry",
  "character": "⛴️"
 },
 {
  "slug": "motor-boat",
  "character": "🛥️"
 },
 {
  "slug": "ship",
  "character": "🚢"
 },
 {
  "slug": "airplane",
  "character": "✈️"
 },
 {
  "slug": "small-airplane",
  "character": "🛩️"
 },
 {
  "slug": "airplane-departure",
  "character": "🛫"
 },
 {
  "slug": "airplane-arrival",
  "character": "🛬"
 },
 {
  "slug": "parachute",
  "character": "🪂"
 },
 {
  "slug": "seat",
  "character": "💺"
 },
 {
  "slug": "helicopter",
  "character": "🚁"
 },
 {
  "slug": "suspension-railway",
  "character": "🚟"
 },
 {
  "slug": "mountain-cableway",
  "character": "🚠"
 },
 {
  "slug": "aerial-tramway",
  "character": "🚡"
 },
 {
  "slug": "satellite",
  "character": "🛰️"
 },
 {
  "slug": "rocket",
  "character": "🚀"
 },
 {
  "slug": "flying-saucer",
  "character": "🛸"
 },
 {
  "slug": "bellhop-bell",
  "character": "🛎️"
 },
 {
  "slug": "luggage",
  "character": "🧳"
 },
 {
  "slug": "new-moon",
  "character": "🌑"
 },
 {
  "slug": "waxing-crescent-moon",
  "character": "🌒"
 },
 {
  "slug": "first-quarter-moon",
  "character": "🌓"
 },
 {
  "slug": "waxing-gibbous-moon",
  "character": "🌔"
 },
 {
  "slug": "full-moon",
  "character": "🌕"
 },
 {
  "slug": "waning-gibbous-moon",
  "character": "🌖"
 },
 {
  "slug": "last-quarter-moon",
  "character": "🌗"
 },
 {
  "slug": "waning-crescent-moon",
  "character": "🌘"
 },
 {
  "slug": "crescent-moon",
  "character": "🌙"
 },
 {
  "slug": "new-moon-face",
  "character": "🌚"
 },
 {
  "slug": "first-quarter-moon-face",
  "character": "🌛"
 },
 {
  "slug": "last-quarter-moon-face",
  "character": "🌜"
 },
 {
  "slug": "thermometer",
  "character": "🌡️"
 },
 {
  "slug": "sun",
  "character": "☀️"
 },
 {
  "slug": "full-moon-face",
  "character": "🌝"
 },
 {
  "slug": "sun-with-face",
  "character": "🌞"
 },
 {
  "slug": "ringed-planet",
  "character": "🪐"
 },
 {
  "slug": "star",
  "character": "⭐"
 },
 {
  "slug": "glowing-star",
  "character": "🌟"
 },
 {
  "slug": "shooting-star",
  "character": "🌠"
 },
 {
  "slug": "milky-way",
  "character": "🌌"
 },
 {
  "slug": "cloud",
  "character": "☁️"
 },
 {
  "slug": "sun-behind-cloud",
  "character": "⛅"
 },
 {
  "slug": "cloud-with-lightning-and-rain",
  "character": "⛈️"
 },
 {
  "slug": "sun-behind-small-cloud",
  "character": "🌤️"
 },
 {
  "slug": "sun-behind-large-cloud",
  "character": "🌥️"
 },
 {
  "slug": "sun-behind-rain-cloud",
  "character": "🌦️"
 },
 {
  "slug": "cloud-with-rain",
  "character": "🌧️"
 },
 {
  "slug": "cloud-with-snow",
  "character": "🌨️"
 },
 {
  "slug": "cloud-with-lightning",
  "character": "🌩️"
 },
 {
  "slug": "tornado",
  "character": "🌪️"
 },
 {
  "slug": "fog",
  "character": "🌫️"
 },
 {
  "slug": "wind-face",
  "character": "🌬️"
 },
 {
  "slug": "cyclone",
  "character": "🌀"
 },
 {
  "slug": "rainbow",
  "character": "🌈"
 },
 {
  "slug": "closed-umbrella",
  "character": "🌂"
 },
 {
  "slug": "umbrella",
  "character": "☂️"
 },
 {
  "slug": "umbrella-with-rain-drops",
  "character": "☔"
 },
 {
  "slug": "umbrella-on-ground",
  "character": "⛱️"
 },
 {
  "slug": "high-voltage",
  "character": "⚡"
 },
 {
  "slug": "snowflake",
  "character": "❄️"
 },
 {
  "slug": "snowman",
  "character": "☃️"
 },
 {
  "slug": "snowman-without-snow",
  "character": "⛄"
 },
 {
  "slug": "comet",
  "character": "☄️"
 },
 {
  "slug": "fire",
  "character": "🔥"
 },
 {
  "slug": "droplet",
  "character": "💧"
 },
 {
  "slug": "water-wave",
  "character": "🌊"
 },
 {
  "slug": "jack-o-lantern",
  "character": "🎃"
 },
 {
  "slug": "christmas-tree",
  "character": "🎄"
 },
 {
  "slug": "fireworks",
  "character": "🎆"
 },
 {
  "slug": "sparkler",
  "character": "🎇"
 },
 {
  "slug": "firecracker",
  "character": "🧨"
 },
 {
  "slug": "sparkles",
  "character": "✨"
 },
 {
  "slug": "balloon",
  "character": "🎈"
 },
 {
  "slug": "party-popper",
  "character": "🎉"
 },
 {
  "slug": "confetti-ball",
  "character": "🎊"
 },
 {
  "slug": "tanabata-tree",
  "character": "🎋"
 },
 {
  "slug": "pine-decoration",
  "character": "🎍"
 },
 {
  "slug": "japanese-dolls",
  "character": "🎎"
 },
 {
  "slug": "carp-streamer",
  "character": "🎏"
 },
 {
  "slug": "wind-chime",
  "character": "🎐"
 },
 {
  "slug": "moon-viewing-ceremony",
  "character": "🎑"
 },
 {
  "slug": "red-envelope",
  "character": "🧧"
 },
 {
  "slug": "ribbon",
  "character": "🎀"
 },
 {
  "slug": "wrapped-gift",
  "character": "🎁"
 },
 {
  "slug": "reminder-ribbon",
  "character": "🎗️"
 },
 {
  "slug": "admission-tickets",
  "character": "🎟️"
 },
 {
  "slug": "ticket",
  "character": "🎫"
 },
 {
  "slug": "military-medal",
  "character": "🎖️"
 },
 {
  "slug": "trophy",
  "character": "🏆"
 },
 {
  "slug": "sports-medal",
  "character": "🏅"
 },
 {
  "slug": "1st-place-medal",
  "character": "🥇"
 },
 {
  "slug": "2nd-place-medal",
  "character": "🥈"
 },
 {
  "slug": "3rd-place-medal",
  "character": "🥉"
 },
 {
  "slug": "soccer-ball",
  "character": "⚽"
 },
 {
  "slug": "baseball",
  "character": "⚾"
 },
 {
  "slug": "softball",
  "character": "🥎"
 },
 {
  "slug": "basketball",
  "character": "🏀"
 },
 {
  "slug": "volleyball",
  "character": "🏐"
 },
 {
  "slug": "american-football",
  "character": "🏈"
 },
 {
  "slug": "rugby-football",
  "character": "🏉"
 },
 {
  "slug": "tennis",
  "character": "🎾"
 },
 {
  "slug": "flying-disc",
  "character": "🥏"
 },
 {
  "slug": "bowling",
  "character": "🎳"
 },
 {
  "slug": "cricket-game",
  "character": "🏏"
 },
 {
  "slug": "field-hockey",
  "character": "🏑"
 },
 {
  "slug": "ice-hockey",
  "character": "🏒"
 },
 {
  "slug": "lacrosse",
  "character": "🥍"
 },
 {
  "slug": "ping-pong",
  "character": "🏓"
 },
 {
  "slug": "badminton",
  "character": "🏸"
 },
 {
  "slug": "boxing-glove",
  "character": "🥊"
 },
 {
  "slug": "martial-arts-uniform",
  "character": "🥋"
 },
 {
  "slug": "goal-net",
  "character": "🥅"
 },
 {
  "slug": "flag-in-hole",
  "character": "⛳"
 },
 {
  "slug": "ice-skate",
  "character": "⛸️"
 },
 {
  "slug": "fishing-pole",
  "character": "🎣"
 },
 {
  "slug": "diving-mask",
  "character": "🤿"
 },
 {
  "slug": "running-shirt",
  "character": "🎽"
 },
 {
  "slug": "skis",
  "character": "🎿"
 },
 {
  "slug": "sled",
  "character": "🛷"
 },
 {
  "slug": "curling-stone",
  "character": "🥌"
 },
 {
  "slug": "direct-hit",
  "character": "🎯"
 },
 {
  "slug": "yo-yo",
  "character": "🪀"
 },
 {
  "slug": "kite",
  "character": "🪁"
 },
 {
  "slug": "pool-8-ball",
  "character": "🎱"
 },
 {
  "slug": "crystal-ball",
  "character": "🔮"
 },
 {
  "slug": "magic-wand",
  "character": "🪄"
 },
 {
  "slug": "nazar-amulet",
  "character": "🧿"
 },
 {
  "slug": "video-game",
  "character": "🎮"
 },
 {
  "slug": "joystick",
  "character": "🕹️"
 },
 {
  "slug": "slot-machine",
  "character": "🎰"
 },
 {
  "slug": "game-die",
  "character": "🎲"
 },
 {
  "slug": "puzzle-piece",
  "character": "🧩"
 },
 {
  "slug": "teddy-bear",
  "character": "🧸"
 },
 {
  "slug": "pinata",
  "character": "🪅"
 },
 {
  "slug": "nesting-dolls",
  "character": "🪆"
 },
 {
  "slug": "spade-suit",
  "character": "♠️"
 },
 {
  "slug": "heart-suit",
  "character": "♥️"
 },
 {
  "slug": "diamond-suit",
  "character": "♦️"
 },
 {
  "slug": "club-suit",
  "character": "♣️"
 },
 {
  "slug": "chess-pawn",
  "character": "♟️"
 },
 {
  "slug": "joker",
  "character": "🃏"
 },
 {
  "slug": "mahjong-red-dragon",
  "character": "🀄"
 },
 {
  "slug": "flower-playing-cards",
  "character": "🎴"
 },
 {
  "slug": "performing-arts",
  "character": "🎭"
 },
 {
  "slug": "framed-picture",
  "character": "🖼️"
 },
 {
  "slug": "artist-palette",
  "character": "🎨"
 },
 {
  "slug": "thread",
  "character": "🧵"
 },
 {
  "slug": "sewing-needle",
  "character": "🪡"
 },
 {
  "slug": "yarn",
  "character": "🧶"
 },
 {
  "slug": "knot",
  "character": "🪢"
 },
 {
  "slug": "glasses",
  "character": "👓"
 },
 {
  "slug": "sunglasses",
  "character": "🕶️"
 },
 {
  "slug": "goggles",
  "character": "🥽"
 },
 {
  "slug": "lab-coat",
  "character": "🥼"
 },
 {
  "slug": "safety-vest",
  "character": "🦺"
 },
 {
  "slug": "necktie",
  "character": "👔"
 },
 {
  "slug": "t-shirt",
  "character": "👕"
 },
 {
  "slug": "jeans",
  "character": "👖"
 },
 {
  "slug": "scarf",
  "character": "🧣"
 },
 {
  "slug": "gloves",
  "character": "🧤"
 },
 {
  "slug": "coat",
  "character": "🧥"
 },
 {
  "slug": "socks",
  "character": "🧦"
 },
 {
  "slug": "dress",
  "character": "👗"
 },
 {
  "slug": "kimono",
  "character": "👘"
 },
 {
  "slug": "sari",
  "character": "🥻"
 },
 {
  "slug": "one-piece-swimsuit",
  "character": "🩱"
 },
 {
  "slug": "briefs",
  "character": "🩲"
 },
 {
  "slug": "shorts",
  "character": "🩳"
 },
 {
  "slug": "bikini",
  "character": "👙"
 },
 {
  "slug": "purse",
  "character": "👛"
 },
 {
  "slug": "handbag",
  "character": "👜"
 },
 {
  "slug": "clutch-bag",
  "character": "👝"
 },
 {
  "slug": "shopping-bags",
  "character": "🛍️"
 },
 {
  "slug": "backpack",
  "character": "🎒"
 },
 {
  "slug": "thong-sandal",
  "character": "🩴"
 },
 {
  "slug": "running-shoe",
  "character": "👟"
 },
 {
  "slug": "hiking-boot",
  "character": "🥾"
 },
 {
  "slug": "flat-shoe",
  "character": "🥿"
 },
 {
  "slug": "high-heeled-shoe",
  "character": "👠"
 },
 {
  "slug": "ballet-shoes",
  "character": "🩰"
 },
 {
  "slug": "crown",
  "character": "👑"
 },
 {
  "slug": "top-hat",
  "character": "🎩"
 },
 {
  "slug": "graduation-cap",
  "character": "🎓"
 },
 {
  "slug": "billed-cap",
  "character": "🧢"
 },
 {
  "slug": "military-helmet",
  "character": "🪖"
 },
 {
  "slug": "rescue-worker-s-helmet",
  "character": "⛑️"
 },
 {
  "slug": "prayer-beads",
  "character": "📿"
 },
 {
  "slug": "lipstick",
  "character": "💄"
 },
 {
  "slug": "ring",
  "character": "💍"
 },
 {
  "slug": "gem-stone",
  "character": "💎"
 },
 {
  "slug": "muted-speaker",
  "character": "🔇"
 },
 {
  "slug": "speaker-low-volume",
  "character": "🔈"
 },
 {
  "slug": "speaker-medium-volume",
  "character": "🔉"
 },
 {
  "slug": "speaker-high-volume",
  "character": "🔊"
 },
 {
  "slug": "loudspeaker",
  "character": "📢"
 },
 {
  "slug": "megaphone",
  "character": "📣"
 },
 {
  "slug": "postal-horn",
  "character": "📯"
 },
 {
  "slug": "bell",
  "character": "🔔"
 },
 {
  "slug": "bell-with-slash",
  "character": "🔕"
 },
 {
  "slug": "musical-score",
  "character": "🎼"
 },
 {
  "slug": "musical-note",
  "character": "🎵"
 },
 {
  "slug": "musical-notes",
  "character": "🎶"
 },
 {
  "slug": "studio-microphone",
  "character": "🎙️"
 },
 {
  "slug": "level-slider",
  "character": "🎚️"
 },
 {
  "slug": "control-knobs",
  "character": "🎛️"
 },
 {
  "slug": "microphone",
  "character": "🎤"
 },
 {
  "slug": "headphone",
  "character": "🎧"
 },
 {
  "slug": "radio",
  "character": "📻"
 },
 {
  "slug": "saxophone",
  "character": "🎷"
 },
 {
  "slug": "accordion",
  "character": "🪗"
 },
 {
  "slug": "guitar",
  "character": "🎸"
 },
 {
  "slug": "musical-keyboard",
  "character": "🎹"
 },
 {
  "slug": "trumpet",
  "character": "🎺"
 },
 {
  "slug": "violin",
  "character": "🎻"
 },
 {
  "slug": "banjo",
  "character": "🪕"
 },
 {
  "slug": "drum",
  "character": "🥁"
 },
 {
  "slug": "long-drum",
  "character": "🪘"
 },
 {
  "slug": "mobile-phone",
  "character": "📱"
 },
 {
  "slug": "mobile-phone-with-arrow",
  "character": "📲"
 },
 {
  "slug": "telephone",
  "character": "☎️"
 },
 {
  "slug": "telephone-receiver",
  "character": "📞"
 },
 {
  "slug": "pager",
  "character": "📟"
 },
 {
  "slug": "fax-machine",
  "character": "📠"
 },
 {
  "slug": "battery",
  "character": "🔋"
 },
 {
  "slug": "electric-plug",
  "character": "🔌"
 },
 {
  "slug": "laptop",
  "character": "💻"
 },
 {
  "slug": "desktop-computer",
  "character": "🖥️"
 },
 {
  "slug": "printer",
  "character": "🖨️"
 },
 {
  "slug": "keyboard",
  "character": "⌨️"
 },
 {
  "slug": "computer-mouse",
  "character": "🖱️"
 },
 {
  "slug": "trackball",
  "character": "🖲️"
 },
 {
  "slug": "computer-disk",
  "character": "💽"
 },
 {
  "slug": "floppy-disk",
  "character": "💾"
 },
 {
  "slug": "optical-disk",
  "character": "💿"
 },
 {
  "slug": "dvd",
  "character": "📀"
 },
 {
  "slug": "abacus",
  "character": "🧮"
 },
 {
  "slug": "movie-camera",
  "character": "🎥"
 },
 {
  "slug": "film-frames",
  "character": "🎞️"
 },
 {
  "slug": "film-projector",
  "character": "📽️"
 },
 {
  "slug": "clapper-board",
  "character": "🎬"
 },
 {
  "slug": "television",
  "character": "📺"
 },
 {
  "slug": "camera",
  "character": "📷"
 },
 {
  "slug": "camera-with-flash",
  "character": "📸"
 },
 {
  "slug": "video-camera",
  "character": "📹"
 },
 {
  "slug": "videocassette",
  "character": "📼"
 },
 {
  "slug": "magnifying-glass-tilted-left",
  "character": "🔍"
 },
 {
  "slug": "magnifying-glass-tilted-right",
  "character": "🔎"
 },
 {
  "slug": "candle",
  "character": "🕯️"
 },
 {
  "slug": "light-bulb",
  "character": "💡"
 },
 {
  "slug": "flashlight",
  "character": "🔦"
 },
 {
  "slug": "red-paper-lantern",
  "character": "🏮"
 },
 {
  "slug": "diya-lamp",
  "character": "🪔"
 },
 {
  "slug": "notebook-with-decorative-cover",
  "character": "📔"
 },
 {
  "slug": "closed-book",
  "character": "📕"
 },
 {
  "slug": "open-book",
  "character": "📖"
 },
 {
  "slug": "green-book",
  "character": "📗"
 },
 {
  "slug": "blue-book",
  "character": "📘"
 },
 {
  "slug": "orange-book",
  "character": "📙"
 },
 {
  "slug": "books",
  "character": "📚"
 },
 {
  "slug": "notebook",
  "character": "📓"
 },
 {
  "slug": "ledger",
  "character": "📒"
 },
 {
  "slug": "page-with-curl",
  "character": "📃"
 },
 {
  "slug": "scroll",
  "character": "📜"
 },
 {
  "slug": "page-facing-up",
  "character": "📄"
 },
 {
  "slug": "newspaper",
  "character": "📰"
 },
 {
  "slug": "rolled-up-newspaper",
  "character": "🗞️"
 },
 {
  "slug": "bookmark-tabs",
  "character": "📑"
 },
 {
  "slug": "bookmark",
  "character": "🔖"
 },
 {
  "slug": "label",
  "character": "🏷️"
 },
 {
  "slug": "money-bag",
  "character": "💰"
 },
 {
  "slug": "coin",
  "character": "🪙"
 },
 {
  "slug": "yen-banknote",
  "character": "💴"
 },
 {
  "slug": "dollar-banknote",
  "character": "💵"
 },
 {
  "slug": "euro-banknote",
  "character": "💶"
 },
 {
  "slug": "pound-banknote",
  "character": "💷"
 },
 {
  "slug": "money-with-wings",
  "character": "💸"
 },
 {
  "slug": "credit-card",
  "character": "💳"
 },
 {
  "slug": "receipt",
  "character": "🧾"
 },
 {
  "slug": "chart-increasing-with-yen",
  "character": "💹"
 },
 {
  "slug": "envelope",
  "character": "✉️"
 },
 {
  "slug": "e-mail",
  "character": "📧"
 },
 {
  "slug": "incoming-envelope",
  "character": "📨"
 },
 {
  "slug": "envelope-with-arrow",
  "character": "📩"
 },
 {
  "slug": "outbox-tray",
  "character": "📤"
 },
 {
  "slug": "inbox-tray",
  "character": "📥"
 },
 {
  "slug": "package",
  "character": "📦"
 },
 {
  "slug": "closed-mailbox-with-raised-flag",
  "character": "📫"
 },
 {
  "slug": "closed-mailbox-with-lowered-flag",
  "character": "📪"
 },
 {
  "slug": "open-mailbox-with-raised-flag",
  "character": "📬"
 },
 {
  "slug": "open-mailbox-with-lowered-flag",
  "character": "📭"
 },
 {
  "slug": "postbox",
  "character": "📮"
 },
 {
  "slug": "ballot-box-with-ballot",
  "character": "🗳️"
 },
 {
  "slug": "pencil",
  "character": "✏️"
 },
 {
  "slug": "black-nib",
  "character": "✒️"
 },
 {
  "slug": "fountain-pen",
  "character": "🖋️"
 },
 {
  "slug": "pen",
  "character": "🖊️"
 },
 {
  "slug": "paintbrush",
  "character": "🖌️"
 },
 {
  "slug": "crayon",
  "character": "🖍️"
 },
 {
  "slug": "memo",
  "character": "📝"
 },
 {
  "slug": "briefcase",
  "character": "💼"
 },
 {
  "slug": "file-folder",
  "character": "📁"
 },
 {
  "slug": "open-file-folder",
  "character": "📂"
 },
 {
  "slug": "card-index-dividers",
  "character": "🗂️"
 },
 {
  "slug": "calendar",
  "character": "📅"
 },
 {
  "slug": "tear-off-calendar",
  "character": "📆"
 },
 {
  "slug": "spiral-notepad",
  "character": "🗒️"
 },
 {
  "slug": "spiral-calendar",
  "character": "🗓️"
 },
 {
  "slug": "card-index",
  "character": "📇"
 },
 {
  "slug": "chart-increasing",
  "character": "📈"
 },
 {
  "slug": "chart-decreasing",
  "character": "📉"
 },
 {
  "slug": "bar-chart",
  "character": "📊"
 },
 {
  "slug": "clipboard",
  "character": "📋"
 },
 {
  "slug": "pushpin",
  "character": "📌"
 },
 {
  "slug": "round-pushpin",
  "character": "📍"
 },
 {
  "slug": "paperclip",
  "character": "📎"
 },
 {
  "slug": "linked-paperclips",
  "character": "🖇️"
 },
 {
  "slug": "straight-ruler",
  "character": "📏"
 },
 {
  "slug": "triangular-ruler",
  "character": "📐"
 },
 {
  "slug": "scissors",
  "character": "✂️"
 },
 {
  "slug": "card-file-box",
  "character": "🗃️"
 },
 {
  "slug": "file-cabinet",
  "character": "🗄️"
 },
 {
  "slug": "wastebasket",
  "character": "🗑️"
 },
 {
  "slug": "locked",
  "character": "🔒"
 },
 {
  "slug": "unlocked",
  "character": "🔓"
 },
 {
  "slug": "locked-with-pen",
  "character": "🔏"
 },
 {
  "slug": "locked-with-key",
  "character": "🔐"
 },
 {
  "slug": "key",
  "character": "🔑"
 },
 {
  "slug": "old-key",
  "character": "🗝️"
 },
 {
  "slug": "hammer",
  "character": "🔨"
 },
 {
  "slug": "axe",
  "character": "🪓"
 },
 {
  "slug": "pick",
  "character": "⛏️"
 },
 {
  "slug": "hammer-and-pick",
  "character": "⚒️"
 },
 {
  "slug": "hammer-and-wrench",
  "character": "🛠️"
 },
 {
  "slug": "dagger",
  "character": "🗡️"
 },
 {
  "slug": "crossed-swords",
  "character": "⚔️"
 },
 {
  "slug": "pistol",
  "character": "🔫"
 },
 {
  "slug": "boomerang",
  "character": "🪃"
 },
 {
  "slug": "bow-and-arrow",
  "character": "🏹"
 },
 {
  "slug": "shield",
  "character": "🛡️"
 },
 {
  "slug": "carpentry-saw",
  "character": "🪚"
 },
 {
  "slug": "wrench",
  "character": "🔧"
 },
 {
  "slug": "screwdriver",
  "character": "🪛"
 },
 {
  "slug": "nut-and-bolt",
  "character": "🔩"
 },
 {
  "slug": "gear",
  "character": "⚙️"
 },
 {
  "slug": "clamp",
  "character": "🗜️"
 },
 {
  "slug": "balance-scale",
  "character": "⚖️"
 },
 {
  "slug": "white-cane",
  "character": "🦯"
 },
 {
  "slug": "link",
  "character": "🔗"
 },
 {
  "slug": "chains",
  "character": "⛓️"
 },
 {
  "slug": "hook",
  "character": "🪝"
 },
 {
  "slug": "toolbox",
  "character": "🧰"
 },
 {
  "slug": "magnet",
  "character": "🧲"
 },
 {
  "slug": "ladder",
  "character": "🪜"
 },
 {
  "slug": "alembic",
  "character": "⚗️"
 },
 {
  "slug": "test-tube",
  "character": "🧪"
 },
 {
  "slug": "petri-dish",
  "character": "🧫"
 },
 {
  "slug": "dna",
  "character": "🧬"
 },
 {
  "slug": "microscope",
  "character": "🔬"
 },
 {
  "slug": "telescope",
  "character": "🔭"
 },
 {
  "slug": "satellite-antenna",
  "character": "📡"
 },
 {
  "slug": "syringe",
  "character": "💉"
 },
 {
  "slug": "drop-of-blood",
  "character": "🩸"
 },
 {
  "slug": "pill",
  "character": "💊"
 },
 {
  "slug": "adhesive-bandage",
  "character": "🩹"
 },
 {
  "slug": "stethoscope",
  "character": "🩺"
 },
 {
  "slug": "door",
  "character": "🚪"
 },
 {
  "slug": "elevator",
  "character": "🛗"
 },
 {
  "slug": "mirror",
  "character": "🪞"
 },
 {
  "slug": "window",
  "character": "🪟"
 },
 {
  "slug": "bed",
  "character": "🛏️"
 },
 {
  "slug": "couch-and-lamp",
  "character": "🛋️"
 },
 {
  "slug": "chair",
  "character": "🪑"
 },
 {
  "slug": "toilet",
  "character": "🚽"
 },
 {
  "slug": "plunger",
  "character": "🪠"
 },
 {
  "slug": "shower",
  "character": "🚿"
 },
 {
  "slug": "bathtub",
  "character": "🛁"
 },
 {
  "slug": "mouse-trap",
  "character": "🪤"
 },
 {
  "slug": "razor",
  "character": "🪒"
 },
 {
  "slug": "lotion-bottle",
  "character": "🧴"
 },
 {
  "slug": "safety-pin",
  "character": "🧷"
 },
 {
  "slug": "broom",
  "character": "🧹"
 },
 {
  "slug": "basket",
  "character": "🧺"
 },
 {
  "slug": "roll-of-paper",
  "character": "🧻"
 },
 {
  "slug": "bucket",
  "character": "🪣"
 },
 {
  "slug": "soap",
  "character": "🧼"
 },
 {
  "slug": "toothbrush",
  "character": "🪥"
 },
 {
  "slug": "sponge",
  "character": "🧽"
 },
 {
  "slug": "fire-extinguisher",
  "character": "🧯"
 },
 {
  "slug": "shopping-cart",
  "character": "🛒"
 },
 {
  "slug": "cigarette",
  "character": "🚬"
 },
 {
  "slug": "coffin",
  "character": "⚰️"
 },
 {
  "slug": "headstone",
  "character": "🪦"
 },
 {
  "slug": "funeral-urn",
  "character": "⚱️"
 },
 {
  "slug": "moai",
  "character": "🗿"
 },
 {
  "slug": "placard",
  "character": "🪧"
 }
]